// Jest Snapshot v1, https://goo.gl/fbAQLP

exports[`Counter Test should have a custom count and match snapshot 1`] = `
<div class="row ma-0 pa-0 align-center">
  <div class="col-md-4 col"><button type="button" class="v-icon notranslate custom-icon v-icon--link mdi mdi-minus theme--light red--text" style="font-size: 16px;"></button></div>
  <div class="col-md-4 pl-0 pr-0 col"><input type="number" min="0" class="custom-input"></div>
  <div class="col-md-4 col"><button type="button" class="v-icon notranslate custom-icon v-icon--link mdi mdi-plus theme--light green--text" style="font-size: 16px;"></button></div>
</div>
`;
